module pabeadle/pabeadle_appengine_app

go 1.16

require (
	cloud.google.com/go/firestore v1.5.0 // indirect
	firebase.google.com/go v3.13.0+incompatible
	github.com/gin-gonic/gin v1.7.2
	github.com/jinzhu/gorm v1.9.16
	github.com/mattn/go-sqlite3 v2.0.1+incompatible // indirect
	google.golang.org/api v0.47.0
)
